{
	"success": true,
	"results": 4,
	"rows"   : [
		{
			"name"    : "Item 1",
			"value": 50
		},
		{
			"name"    : "Item 2",
			"value": 120
		},
		{
			"name"    : "Item 3",
			"value": 33
		},
		{
			"name"    : "Item 4",
			"value": 76
		},
		{
			"name"    : "Item 5",
			"value": 88
		},
		{
			"name"    : "Item 6",
			"value": 46
		}
	]
}